32500000000000000e+02
1.451250000000000000e+02
2.088750000000000000e+02
2.298750000000000000e+02
2.880000000000000000e+02
2.760000000000000000e+02
1.987500000000000000e+02
1.323750000000000000e+02
3.525000000000000000e+02
5.887500000000000000e+01
6.375000000000000888e+00
1.717500000000000000e+02
1.267500000000000000e+02
3.198750000000000000e+02
3.300000000000000000e+01
